Creating optimal conditions for reproducible data analysis in R with ‘fertile’
…
.small[

```r
render_log_report('project_miceps')
```

```
## Reading from /Users/audreybertin/Documents/thesis/index/slides/project_miceps/.fertile_render_log.csv
```

```
## # A tibble: 21 x 4
##    path                    path_abs                  func    timestamp          
##    <chr>                   <chr>                     <chr>   <dttm>             
##  1 Seed @ Start            <NA>                      624     2021-03-30 22:26:15
##  2 package:dplyr           <NA>                      base::… 2021-03-30 22:26:15
##  3 package:readr           <NA>                      base::… 2021-03-30 22:26:15
##  4 package:tidyr           <NA>                      base::… 2021-03-30 22:26:15
##  5 package:ggplot2         <NA>                      base::… 2021-03-30 22:26:15
##  6 package:purrr           <NA>                      base::… 2021-03-30 22:26:16
##  7 Seed Before             <NA>                      624     2021-03-30 22:26:16
##  8 /Users/audreybertin/Do… /Users/audreybertin/Docu… readr:… 2021-03-30 22:26:16
##  9 Seed After              <NA>                      15      2021-03-30 22:26:16
## 10 Seed Before             <NA>                      15      2021-03-30 22:26:16
## # … with 11 more rows
```
…
